/*****************CCB Mail triggered starts at 3/30/2018 5:45:50 PM*****************/
Executing CCBPublishMail at time 3/30/2018 5:45:51 PM
System.Configuration.ConfigurationErrorsException: Configuration system failed to initialize ---> System.Configuration.ConfigurationErrorsException: Unrecognized configuration section appsetting. (D:\ganesh\sca_internal\CCBMail\bin\Debug\CCBMail.vshost.exe.Config line 6)
   at System.Configuration.ConfigurationSchemaErrors.ThrowIfErrors(Boolean ignoreLocal)
   at System.Configuration.BaseConfigurationRecord.ThrowIfParseErrors(ConfigurationSchemaErrors schemaErrors)
   at System.Configuration.BaseConfigurationRecord.ThrowIfInitErrors()
   at System.Configuration.ClientConfigurationSystem.EnsureInit(String configKey)
   --- End of inner exception stack trace ---
   at System.Configuration.ClientConfigurationSystem.EnsureInit(String configKey)
   at System.Configuration.ClientConfigurationSystem.PrepareClientConfigSystem(String sectionName)
   at System.Configuration.ClientConfigurationSystem.System.Configuration.Internal.IInternalConfigSystem.GetSection(String sectionName)
   at System.Configuration.ConfigurationManager.get_AppSettings()
   at Library.Email.GetCCBPublishEmailBody(DateTime CCBPublishDate) in D:\ganesh\sca_internal\Library\Email.cs:line 1121
   at Library.Email.SendPatchingEmail(DateTime patchDate, String environment, String activityType, String patchingLogPath) in D:\ganesh\sca_internal\Library\Email.cs:line 632
/*****************CCB Mail triggered ends at 3/30/2018 5:45:52 PM*****************/
/*****************CCB Mail triggered starts at 3/30/2018 5:46:22 PM*****************/
/*****************CCB Mail triggered starts at 3/30/2018 5:47:26 PM*****************/
/*****************CCB Mail triggered ends at 3/30/2018 5:47:26 PM*****************/
/*****************CCB Mail triggered starts at 3/30/2018 5:48:29 PM*****************/
/*****************CCB Mail triggered ends at 3/30/2018 5:48:29 PM*****************/
/*****************CCB Mail triggered starts at 3/30/2018 5:48:35 PM*****************/
/*****************CCB Mail triggered ends at 3/30/2018 5:48:37 PM*****************/
/*****************CCB Mail triggered starts at 3/30/2018 5:48:51 PM*****************/
/*****************CCB Mail triggered ends at 3/30/2018 5:48:59 PM*****************/
/*****************CCB Mail triggered starts at 3/28/2018 5:50:43 PM*****************/
Executing CCBMail at time 3/28/2018 5:50:51 PM
/*****************CCB Mail triggered starts at 3/28/2018 6:09:07 PM*****************/
Executing CCBMail at time 3/28/2018 6:09:13 PM
System.Configuration.ConfigurationErrorsException: Configuration system failed to initialize ---> System.Configuration.ConfigurationErrorsException: Unrecognized configuration section appsetting. (D:\ganesh\sca_internal\CCBMail\bin\Debug\CCBMail.vshost.exe.Config line 6)
   at System.Configuration.ConfigurationSchemaErrors.ThrowIfErrors(Boolean ignoreLocal)
   at System.Configuration.BaseConfigurationRecord.ThrowIfParseErrors(ConfigurationSchemaErrors schemaErrors)
   at System.Configuration.BaseConfigurationRecord.ThrowIfInitErrors()
   at System.Configuration.ClientConfigurationSystem.EnsureInit(String configKey)
   --- End of inner exception stack trace ---
   at System.Configuration.ClientConfigurationSystem.EnsureInit(String configKey)
   at System.Configuration.ClientConfigurationSystem.PrepareClientConfigSystem(String sectionName)
   at System.Configuration.ClientConfigurationSystem.System.Configuration.Internal.IInternalConfigSystem.GetSection(String sectionName)
   at System.Configuration.ConfigurationManager.get_AppSettings()
   at Library.Email.GetCCBEmailBody(DateTime CCBReadyDate) in D:\ganesh\sca_internal\Library\Email.cs:line 1049
   at Library.Email.SendPatchingEmail(DateTime patchDate, String environment, String activityType, String patchingLogPath) in D:\ganesh\sca_internal\Library\Email.cs:line 616
/*****************CCB Mail triggered ends at 3/28/2018 6:09:14 PM*****************/
/*****************CCB Mail triggered starts at 3/28/2018 6:09:35 PM*****************/
Executing CCBMail at time 3/28/2018 6:09:40 PM
/*****************CCB Mail triggered starts at 3/28/2018 6:13:47 PM*****************/
Executing CCBMail at time 3/28/2018 6:13:50 PM
System.Configuration.ConfigurationErrorsException: Configuration system failed to initialize ---> System.Configuration.ConfigurationErrorsException: Unrecognized configuration section appsetting. (D:\ganesh\sca_internal\CCBMail\bin\Debug\CCBMail.vshost.exe.Config line 6)
   at System.Configuration.ConfigurationSchemaErrors.ThrowIfErrors(Boolean ignoreLocal)
   at System.Configuration.BaseConfigurationRecord.ThrowIfParseErrors(ConfigurationSchemaErrors schemaErrors)
   at System.Configuration.BaseConfigurationRecord.ThrowIfInitErrors()
   at System.Configuration.ClientConfigurationSystem.EnsureInit(String configKey)
   --- End of inner exception stack trace ---
   at System.Configuration.ClientConfigurationSystem.EnsureInit(String configKey)
   at System.Configuration.ClientConfigurationSystem.PrepareClientConfigSystem(String sectionName)
   at System.Configuration.ClientConfigurationSystem.System.Configuration.Internal.IInternalConfigSystem.GetSection(String sectionName)
   at System.Configuration.ConfigurationManager.get_AppSettings()
   at Library.Email.GetCCBEmailBody(DateTime CCBReadyDate) in D:\ganesh\sca_internal\Library\Email.cs:line 1049
   at Library.Email.SendPatchingEmail(DateTime patchDate, String environment, String activityType, String patchingLogPath) in D:\ganesh\sca_internal\Library\Email.cs:line 616
/*****************CCB Mail triggered ends at 3/28/2018 6:13:50 PM*****************/
/*****************CCB Mail triggered starts at 4/6/2018 8:15:56 PM*****************/
Executing CCBPublishMail at time 4/6/2018 8:15:58 PM
System.IO.DirectoryNotFoundException: Could not find a part of the path 'C:\WINDOWS\system32\CCBPublishMail\Template\CCBMailPublishTemplate.html'.
   at System.IO.__Error.WinIOError(Int32 errorCode, String maybeFullPath)
   at System.IO.FileStream.Init(String path, FileMode mode, FileAccess access, Int32 rights, Boolean useRights, FileShare share, Int32 bufferSize, FileOptions options, SECURITY_ATTRIBUTES secAttrs, String msgPath, Boolean bFromProxy, Boolean useLongPath, Boolean checkHost)
   at System.IO.FileStream..ctor(String path, FileMode mode, FileAccess access, FileShare share, Int32 bufferSize, FileOptions options, String msgPath, Boolean bFromProxy, Boolean useLongPath, Boolean checkHost)
   at System.IO.StreamReader..ctor(String path, Encoding encoding, Boolean detectEncodingFromByteOrderMarks, Int32 bufferSize, Boolean checkHost)
   at System.IO.StreamReader..ctor(String path)
   at Library.Email.GetCCBPublishEmailBody(DateTime CCBPublishDate) in D:\ganesh\sca_internal\Library\Email.cs:line 1125
/*****************CCB Mail triggered starts at 4/13/2018 8:15:52 PM*****************/
Executing CCBPublishMail at time 4/13/2018 8:15:53 PM
System.IO.DirectoryNotFoundException: Could not find a part of the path 'C:\WINDOWS\system32\CCBPublishMail\Template\CCBMailPublishTemplate.html'.
   at System.IO.__Error.WinIOError(Int32 errorCode, String maybeFullPath)
   at System.IO.FileStream.Init(String path, FileMode mode, FileAccess access, Int32 rights, Boolean useRights, FileShare share, Int32 bufferSize, FileOptions options, SECURITY_ATTRIBUTES secAttrs, String msgPath, Boolean bFromProxy, Boolean useLongPath, Boolean checkHost)
   at System.IO.FileStream..ctor(String path, FileMode mode, FileAccess access, FileShare share, Int32 bufferSize, FileOptions options, String msgPath, Boolean bFromProxy, Boolean useLongPath, Boolean checkHost)
   at System.IO.StreamReader..ctor(String path, Encoding encoding, Boolean detectEncodingFromByteOrderMarks, Int32 bufferSize, Boolean checkHost)
   at System.IO.StreamReader..ctor(String path)
   at Library.Email.GetCCBPublishEmailBody(DateTime CCBPublishDate) in D:\ganesh\sca_internal\Library\Email.cs:line 1125
/*****************CCB Mail triggered starts at 4/18/2018 3:04:27 PM*****************/
Executing CCBMail at time 4/18/2018 3:04:55 PM
